{
	"info": {
		"_postman_id": "8522b3dc-e4f1-4ee6-bbec-48ee4104f39b",
		"name": "นพรัตน์ค้นหางาน Senior Java Programmer และสมัครไม่สำเร็จ อายุน้อยกว่ากำหนด",
		"schema": "https://schema.getpostman.com/json/collection/v2.1.0/collection.json"
	},
	"item": [
		{
			"name": "ค้นหางานด้วย keyword ว่า \"Programmer\" และสมัครงานไม่สำเร็จ",
			"event": [
				{
					"listen": "test",
					"script": {
						"exec": [
							"pm.test(\"Status code is 200\", function () {\r",
							"    pm.response.to.have.status(200);\r",
							"});\r",
							"\r",
							"pm.test(\"Job 1 ต้องเป็น Python\", function () {\r",
							"    var jsonDate = pm.response.json();\r",
							"    pm.expect(jsonDate[0].name).to.eql(\"Python Programmer\");\r",
							"    pm.expect(jsonDate[0]._id).to.eql(1);\r",
							"});"
						],
						"type": "text/javascript"
					}
				}
			],
			"request": {
				"method": "GET",
				"header": [],
				"url": {
					"raw": "http://localhost:3000/jobPostings/search/Programmer",
					"protocol": "http",
					"host": [
						"localhost"
					],
					"port": "3000",
					"path": [
						"jobPostings",
						"search",
						"Programmer"
					]
				}
			},
			"response": []
		},
		{
			"name": "ดูรายละเอียดงาน ID:2 Senior Java Programmer",
			"event": [
				{
					"listen": "test",
					"script": {
						"exec": [
							"pm.test(\"Status code is 200\", function () {\r",
							"    pm.response.to.have.status(200);\r",
							"});\r",
							"\r",
							"pm.test(\"Job ID ต้องเป็น 2\", function () {\r",
							"    var jsonDate = pm.response.json();\r",
							"    pm.expect(jsonDate._id).to.eql(2);\r",
							"});\r",
							"pm.test(\"ชื่อต้องเป็น Senior Java Programmer\", function () {\r",
							"    var jsonDate = pm.response.json();\r",
							"    pm.expect(jsonDate.name).to.eql(\" Senior Java Programmer\");\r",
							"});\r",
							"\r",
							"pm.test(\"Company ID ต้องเป็น 2\", function () {\r",
							"    var jsonDate = pm.response.json();\r",
							"    pm.expect(jsonDate.companyId).to.eql(2);\r",
							"});"
						],
						"type": "text/javascript"
					}
				}
			],
			"request": {
				"method": "GET",
				"header": [],
				"url": {
					"raw": "http://localhost:3000/jobPostings/2",
					"protocol": "http",
					"host": [
						"localhost"
					],
					"port": "3000",
					"path": [
						"jobPostings",
						"2"
					]
				}
			},
			"response": []
		},
		{
			"name": "นพรัตน์สมัครงาน Senior Java Programmer ไม่สำเร็จ",
			"event": [
				{
					"listen": "test",
					"script": {
						"exec": [
							"pm.test(\"Status code is 422\", function () {\r",
							"    pm.response.to.have.status(422);\r",
							"});\r",
							"\r",
							"pm.test(\"message Age out of range \", function () {\r",
							"    var jsonData = pm.response.json();\r",
							"    pm.expect(jsonData.message).to.eql(\"Age out of range\");\r",
							"});"
						],
						"type": "text/javascript"
					}
				}
			],
			"request": {
				"method": "POST",
				"header": [],
				"body": {
					"mode": "raw",
					"raw": "{\r\n   \" name\":\"Worawit\",\r\n    \"jobPostingId\":1,\r\n    \"age\":24,\r\n    \"gender\":1,\r\n    \"experience\":2,\r\n    \"detail\":{}\r\n}",
					"options": {
						"raw": {
							"language": "json"
						}
					}
				},
				"url": {
					"raw": "http://localhost:3000/jobPostings/2/apply/",
					"protocol": "http",
					"host": [
						"localhost"
					],
					"port": "3000",
					"path": [
						"jobPostings",
						"2",
						"apply",
						""
					]
				}
			},
			"response": []
		}
	]
}